"Service type","Service Type Code","Repair Type"
"Chargeable","C","Consumer Repair"
"Warranty","W","Consumer Repair"
"Trade","T","Consumer Repair"
"Extended Warranty (Client)","Y","Consumer Repair"
"Extended Warranty (D&G)","E","Consumer Repair"
"Extended Warranty (Sony)","X","Consumer Repair"
"Insurance","N","Consumer Repair"
"Special Claim","S","Consumer Repair"
"Chargeable","C","Store Stock Repair"
"Warranty","W","Store Stock Repair"
"Basic Install","","Installation"
"Home Cinema Install","","Installation"
"Installation (Client)","","Installation"
"Installation (Sony)","","Installation"
"PC Setup","","Installation"
"Projector Install","","Installation"
"Satellite System Install","","Installation"
"TV Aerial Install","","Installation"
"Wallmount <32Inch","","Installation"
"Wallmount 32Inch-55inch","","Installation"
"Wallmount 60Inch+","","Installation"
"White Goods Install","","Installation"
"In-home Support","","Other Service"
"Tutorial","","Other Service"
"Inspection","","Other Service"
